<?xml version="1.0" encoding="UTF-8" standalone="no"?>
<!-- Created with Inkscape (http://www.inkscape.org/) -->

<svg
   xmlns:dc="http://purl.org/dc/elements/1.1/"
   xmlns:cc="http://creativecommons.org/ns#"
   xmlns:rdf="http://www.w3.org/1999/02/22-rdf-syntax-ns#"
   xmlns:svg="http://www.w3.org/2000/svg"
   xmlns="http://www.w3.org/2000/svg"
   xmlns:sodipodi="http://sodipodi.sourceforge.net/DTD/sodipodi-0.dtd"
   xmlns:inkscape="http://www.inkscape.org/namespaces/inkscape"
   id="svg2"
   version="1.1"
   inkscape:version="0.48.4 r9939"
   width="18"
   height="18"
   sodipodi:docname="cold.svg">
  <metadata
     id="metadata8">
    <rdf:RDF>
      <cc:Work
         rdf:about="">
        <dc:format>image/svg+xml</dc:format>
        <dc:type
           rdf:resource="http://purl.org/dc/dcmitype/StillImage" />
        <dc:title />
      </cc:Work>
    </rdf:RDF>
  </metadata>
  <defs
     id="defs6" />
  <sodipodi:namedview
     pagecolor="#ffffff"
     bordercolor="#666666"
     borderopacity="1"
     objecttolerance="10"
     gridtolerance="10"
     guidetolerance="10"
     inkscape:pageopacity="0"
     inkscape:pageshadow="2"
     inkscape:window-width="1787"
     inkscape:window-height="1058"
     id="namedview4"
     showgrid="false"
     inkscape:zoom="1"
     inkscape:cx="-105.57816"
     inkscape:cy="12.394068"
     inkscape:window-x="-8"
     inkscape:window-y="-8"
     inkscape:window-maximized="1"
     inkscape:current-layer="layer2" />
  <g
     inkscape:groupmode="layer"
     id="layer2"
     inkscape:label="Layer">
    <path
       style="fill:#000000;fill-opacity:1;fill-rule:evenodd;stroke:none"
       d="m 9.1320785,0.06818835 c 0,0 -1.4352016,1.90946585 -1.3868247,3.07082625 0.021611,0.5188051 0.3395985,1.4667337 0.6934124,2.1462763 C 7.4377887,5.470522 6.5405247,6.0535228 5.9952131,6.8702334 5.602023,6.2007281 4.8954406,5.3842857 4.4432901,5.0871731 3.4718785,4.4488491 1.1083069,4.6579178 1.1083069,4.6579178 c 0,0 1.0388929,2.1166492 2.0141978,2.6745905 0.5195577,0.2972232 1.6288537,0.6801957 2.3774138,0.6934124 -0.069205,0.2791501 -0.099059,0.5583543 -0.099059,0.8585106 0,0.4954384 0.1162536,0.9558598 0.2971768,1.3868247 -0.7468114,-0.0099 -1.9081509,0.387219 -2.4434532,0.693413 -0.9753049,0.557941 -2.0141978,2.64157 -2.0141978,2.64157 0,0 2.3305513,0.242088 3.3019637,-0.396235 0.5194678,-0.341349 1.3892212,-1.344543 1.7170211,-2.047218 0.5721474,0.69352 1.3824828,1.217072 2.3113745,1.353805 -0.3990439,0.674519 -0.8015993,1.770841 -0.8254909,2.344394 -0.048377,1.161361 1.3868247,3.070827 1.3868247,3.070827 0,0 1.2773265,-1.980455 1.2547465,-3.103846 -0.01172,-0.582852 -0.270155,-1.687012 -0.6273734,-2.344395 0.8144114,-0.151244 1.5180614,-0.594978 2.0472174,-1.188706 0.303376,0.702923 1.181743,1.761519 1.717021,2.113256 0.971412,0.638325 3.334984,0.396237 3.334984,0.396237 0,0 -1.038893,-2.083631 -2.014199,-2.641572 -0.543174,-0.310697 -1.731781,-0.715813 -2.476472,-0.693412 0.235645,-0.4841367 0.396236,-1.0100155 0.396236,-1.5849427 0,-0.4701242 -0.103096,-0.907869 -0.264158,-1.3207855 0.748563,-0.013684 1.858182,-0.3633907 2.377414,-0.6603927 0.975305,-0.557941 2.014198,-2.6745906 2.014198,-2.6745906 0,0 -2.363571,-0.2420883 -3.334983,0.3962356 C 13.059639,4.9515284 12.295003,5.9089393 11.938748,6.6060763 11.420509,5.9615436 10.696851,5.4642213 9.8585105,5.2852909 10.153002,4.6205029 10.376371,3.6921908 10.386825,3.1720342 10.409403,2.0486432 9.1320785,0.06818835 9.1320785,0.06818835 z M 9.0990589,6.27588 c 1.4465361,0 2.6085511,1.1620154 2.6085511,2.6085513 0,1.4465357 -1.162015,2.6085517 -2.6085511,2.6085517 -1.4465359,0 -2.6415709,-1.162016 -2.6415709,-2.6085517 0,-1.4465359 1.195035,-2.6085513 2.6415709,-2.6085513 z m 0,1.3207855 c -0.6960907,0 -1.2877658,0.5586554 -1.2877658,1.2547461 0,0.6960907 0.5916751,1.2547464 1.2877658,1.2547464 0.6960907,0 1.2547461,-0.5586557 1.2547461,-1.2547464 0,-0.6960907 -0.5586554,-1.2547461 -1.2547461,-1.2547461 z"
       id="path3760"
       inkscape:connector-curvature="0"
       sodipodi:nodetypes="csccscscscccsccscsccscccscccsccscssssssssss" />
  </g>
</svg>
