<?xml version="1.0" encoding="UTF-8" standalone="no"?>
<!-- Created with Inkscape (http://www.inkscape.org/) -->

<svg
   xmlns:dc="http://purl.org/dc/elements/1.1/"
   xmlns:cc="http://creativecommons.org/ns#"
   xmlns:rdf="http://www.w3.org/1999/02/22-rdf-syntax-ns#"
   xmlns:svg="http://www.w3.org/2000/svg"
   xmlns="http://www.w3.org/2000/svg"
   xmlns:sodipodi="http://sodipodi.sourceforge.net/DTD/sodipodi-0.dtd"
   xmlns:inkscape="http://www.inkscape.org/namespaces/inkscape"
   id="svg2"
   version="1.1"
   inkscape:version="0.48.4 r9939"
   width="39"
   height="39"
   sodipodi:docname="LotusBlack.png">
  <metadata
     id="metadata8">
    <rdf:RDF>
      <cc:Work
         rdf:about="">
        <dc:format>image/svg+xml</dc:format>
        <dc:type
           rdf:resource="http://purl.org/dc/dcmitype/StillImage" />
        <dc:title></dc:title>
      </cc:Work>
    </rdf:RDF>
  </metadata>
  <defs
     id="defs6" />
  <sodipodi:namedview
     pagecolor="#ffffff"
     bordercolor="#666666"
     borderopacity="1"
     objecttolerance="10"
     gridtolerance="10"
     guidetolerance="10"
     inkscape:pageopacity="0"
     inkscape:pageshadow="2"
     inkscape:window-width="1787"
     inkscape:window-height="1058"
     id="namedview4"
     showgrid="false"
     showguides="true"
     inkscape:guide-bbox="true"
     inkscape:zoom="12.102564"
     inkscape:cx="21.650676"
     inkscape:cy="12.944977"
     inkscape:window-x="-8"
     inkscape:window-y="-8"
     inkscape:window-maximized="1"
     inkscape:current-layer="layer2" />
  <g
     inkscape:groupmode="layer"
     id="layer2"
     inkscape:label="Layer"
     style="display:inline">
    <path
       style="fill:#000000;fill-opacity:1;fill-rule:evenodd;stroke:none"
       d="m 19.549032,0.7286538 c -0.09044,0.0296672 -0.17142,0.0875089 -0.228816,0.16344042 0,0 -1.936196,2.29862478 -3.236121,6.21073568 C 12.934678,3.9068833 8.8927172,2.1996175 8.8927172,2.1996175 L 8.4677722,2.003489 8.2389556,2.4284341 c 0,0 -0.6979873,1.3106038 -1.0133306,3.6283771 C 7.0588766,7.2824126 6.9883228,8.7960447 7.1602489,10.567767 3.486509,9.8268516 0.13231115,10.50239 0.13231115,10.50239 4.654813,17.591719 1.9009126,18.780362 7.225625,24.296761 c 1.5303923,1.585486 3.319116,2.576074 5.066653,3.170744 -1.603235,0.660762 -3.3036348,1.835757 -4.674396,3.889882 -1.7122433,2.565845 -2.9904236,4.03565 -3.8245056,4.870524 -0.834082,0.834875 -1.176771,0.980643 -1.176771,0.980643 l -1.5690279,0.817202 1.7651564,0.196128 c 0,0 7.5568381,0.844068 11.7677101,-3.824505 2.485083,-2.755201 3.347294,-4.501859 3.563001,-5.687727 0.02491,-0.136897 0.0265,-0.269021 0.03269,-0.392257 0.988953,0.05226 1.769765,0.04004 2.745799,0 0.0062,0.123236 0.0077,0.25536 0.03269,0.392257 0.215706,1.185868 1.077918,2.932526 3.563001,5.687727 4.210871,4.668573 11.767709,3.824505 11.767709,3.824505 l 1.765157,-0.196128 -1.569028,-0.817202 c 0,0 -0.342689,-0.145768 -1.176771,-0.980643 -0.834082,-0.834874 -2.112262,-2.304679 -3.824506,-4.870524 -1.381728,-2.070558 -3.092684,-3.264742 -4.707084,-3.92257 1.734997,-0.595938 3.515167,-1.564581 5.033965,-3.138056 5.324712,-5.516399 2.538125,-6.705042 7.060626,-13.794371 0,0 -3.404876,-0.6824829 -7.126002,0.09807 C 31.926132,8.7859124 31.878858,7.2398993 31.708999,5.9914351 31.393656,3.6736617 30.695668,2.3630579 30.695668,2.3630579 l -0.228816,-0.424945 -0.424945,0.1961285 c 0,0 -3.793582,1.5962398 -6.897186,4.6090196 C 21.801988,3.3477306 20.072041,0.9247823 20.072041,0.9247823 19.967321,0.76999832 19.7643,0.68878972 19.58172,0.7286538 c -0.01089,-3.7834e-4 -0.0218,-3.7834e-4 -0.03269,0 z m 0.130752,1.3728995 c 0.347154,0.5162709 1.811705,2.6483185 2.745799,5.1320289 0.934095,2.4837105 1.398034,4.8129818 1.307524,7.2567538 -0.03466,0.935798 -0.132856,1.834849 -0.261505,2.680423 -0.12919,0.324312 -0.252644,0.659007 -0.359569,1.013331 -0.933847,3.094559 -1.706268,5.279055 -2.320854,6.799121 -0.02104,0.05204 -0.04474,0.08026 -0.06538,0.130752 -0.555198,0.9641 -1.038717,1.628576 -1.242147,1.895909 -0.57429,-0.984341 -3.43703,-6.095843 -3.595689,-12.388783 C 15.702806,7.2769873 19.072752,2.8651347 19.679784,2.1015533 z m 10.23137,1.2748352 c 0.140524,0.2987616 0.503111,0.9177444 0.751826,2.7457989 0.170279,1.2515544 0.22731,2.8510595 0,4.7397716 -2.225187,0.637954 -4.439912,1.836933 -6.014607,4.086011 0.008,-0.141883 0.02737,-0.281481 0.03269,-0.424946 0.08632,-2.33056 -0.404347,-4.6532134 -1.111395,-6.7010563 2.558699,-2.6133443 5.745175,-4.1704788 6.341488,-4.4455792 z M 9.0234696,3.4417646 c 0.6234501,0.2876197 4.0946994,1.9714783 6.7010564,4.8051482 -0.509047,1.8550352 -0.845049,4.0058222 -0.784514,6.4068642 0.01143,0.453423 0.02651,0.895473 0.06538,1.340211 -1.584113,-2.93797 -4.171359,-4.40941 -6.7337453,-5.132029 -0.218289,-1.860804 -0.1683666,-3.4369014 0,-4.6743954 0.2487149,-1.8280545 0.611301,-2.4470373 0.7518259,-2.745799 z M 14.090122,27.957826 c 1.096625,0.231861 2.132377,0.325619 3.007304,0.359569 -0.0053,0.06758 0.01509,0.113121 0,0.196129 -0.158242,0.869948 -0.886591,2.52001 -3.301496,5.197405 -3.071454,3.405307 -7.6266273,3.456301 -9.4468562,3.39956 0.091476,-0.08589 0.062614,-0.02983 0.1634404,-0.130752 0.895254,-0.896105 2.2133047,-2.423598 3.955258,-5.033965 1.7123348,-2.565983 3.8825498,-3.584195 5.6223498,-3.987946 z m 10.885132,0 c 1.744867,0.398477 3.932435,1.406575 5.655038,3.987946 1.741953,2.610367 3.060004,4.13786 3.955258,5.033965 0.102196,0.10229 0.07086,0.0439 0.16344,0.130752 -1.820229,0.05674 -6.375402,0.0058 -9.446855,-3.39956 -2.414906,-2.677395 -3.143255,-4.327457 -3.301497,-5.197405 -0.01509,-0.08301 0.0053,-0.12854 0,-0.196129 0.875778,-0.03678 1.883489,-0.125232 2.974616,-0.359569 z"
       id="path2990"
       inkscape:connector-curvature="0"
       sodipodi:nodetypes="ccccccsccscsscccsccccscccsscsccsccccccccsscscccsccsccsccccsccsccccscssccsccsccc" />
  </g>
</svg>
