<?xml version="1.0" encoding="UTF-8" standalone="no"?>
<!-- Created with Inkscape (http://www.inkscape.org/) -->

<svg
   xmlns:dc="http://purl.org/dc/elements/1.1/"
   xmlns:cc="http://creativecommons.org/ns#"
   xmlns:rdf="http://www.w3.org/1999/02/22-rdf-syntax-ns#"
   xmlns:svg="http://www.w3.org/2000/svg"
   xmlns="http://www.w3.org/2000/svg"
   xmlns:sodipodi="http://sodipodi.sourceforge.net/DTD/sodipodi-0.dtd"
   xmlns:inkscape="http://www.inkscape.org/namespaces/inkscape"
   id="svg4136"
   version="1.1"
   inkscape:version="0.48.4 r9939"
   width="50"
   height="50"
   viewBox="0 0 50 50"
   sodipodi:docname="polarity-penjaga.svg">
  <metadata
     id="metadata4142">
    <rdf:RDF>
      <cc:Work
         rdf:about="">
        <dc:format>image/svg+xml</dc:format>
        <dc:type
           rdf:resource="http://purl.org/dc/dcmitype/StillImage" />
        <dc:title />
      </cc:Work>
    </rdf:RDF>
  </metadata>
  <defs
     id="defs4140" />
  <sodipodi:namedview
     pagecolor="#ffffff"
     bordercolor="#666666"
     borderopacity="1"
     objecttolerance="10"
     gridtolerance="10"
     guidetolerance="10"
     inkscape:pageopacity="0"
     inkscape:pageshadow="2"
     inkscape:window-width="1787"
     inkscape:window-height="1058"
     id="namedview4138"
     showgrid="false"
     inkscape:zoom="5.37"
     inkscape:cx="-30.12285"
     inkscape:cy="25.486885"
     inkscape:window-x="-8"
     inkscape:window-y="-8"
     inkscape:window-maximized="1"
     inkscape:current-layer="svg4136" />
  <path
     id="path4163"
     style="fill:#000000;fill-opacity:1;fill-rule:evenodd;stroke:#000000;stroke-width:1.09984612px;stroke-linecap:butt;stroke-linejoin:miter;stroke-opacity:1"
     d="m 30.228879,32.374516 0,-0.614439 0.204814,-11.981563 12.186376,-5.222733 0.30722,13.005629 z m 0.397332,9.112933 c 0,0 -8.192523,3.072196 -17.204295,7.578084 L 12.807477,26.331283 12.602664,8.9221752 7.0727116,8.1029238 15.470046,4.6211015 23.048128,0.93446696 23.252941,25.512031 23.048128,39.644132 z"
     inkscape:connector-curvature="0" />
</svg>
